{
    "Version": "2012-10-17",
    "Statement": [
        {
            "Sid": "permisosCognito",
            "Effect": "Allow",
            "Action": [
                "cognito-idp:AdminInitiateAuth",
                "cognito-idp:GlobalSignOut",
                "cognito-idp:ConfirmForgotPassword",
                "cognito-idp:AdminRespondToAuthChallenge",
                "cognito-idp:InitiateAuth"
            ],
            "Resource": [
                "arn:aws:cognito-idp:us-east-2:864129730232:userpool/us-east-2_XF61D3EHt",
                "arn:aws:cognito-idp:us-east-1:864129730232:userpool/us-east-1_mjhflsrWI"
            ]
        }
    ]
}