{
    "AWSTemplateFormatVersion": "2010-09-09",
    "Description": "Security Groups",
    "Metadata": {},
    "Parameters": {
        "TipoInstancia" : {
            "Type" : "String",
            "Default" : "t2.micro"
        },
        "IdImagen" : {
            "Type" : "String",
            "Default" : "ami-00eb20669e0990cb4"
        },
        "ClaveSSH" : {
            "Type" : "AWS::EC2::KeyPair::KeyName"
        }
    },
    "Mappings": {},
    "Conditions": {},
    "Resources": {
        "ec2Bastion" : {
            "Type" : "AWS::EC2::Instance",
            "Properties" : {
                "ImageId" : { "Ref" : "IdImagen" },
                "KeyName" : { "Ref" : "ClaveSSH" },
                "InstanceType": { "Ref" : "TipoInstancia" },
                "SubnetId": {"Fn::ImportValue": "infraestructura-subnetPublica"},
                "SecurityGroupIds": [ {
                    "Fn::ImportValue": "infraestructura-sgBastion"
                }]
               
            }
        }
    },
    "Outputs": {
        "dnsPublicEC2": {
            "Description": "dns publico para ec2",
            "Value": {
                "Fn::GetAtt": [
                    "ec2Bastion",
                    "PublicDnsName"
                ]
            }
        }
    }
}
