{
  "swagger": "2.0",
  "info": {
    "version": "API ToS",
    "title": "RestApi GeoServiciosAPP"
  },
  "host": "localhost",
  "basePath": "",
  "schemes": [
    "https"
  ],
  "paths": {
    "/api/feedback/eliminar/{id}": {
      "delete": {
        "operationId": "eliminarFeedBackUsingDELETE",
        "produces": [
          "application/json"
        ],
        "parameters": [
          {
            "name": "id",
            "in": "path",
            "required": true,
            "type": "string"
          }
        ],
        "responses": {
          "200": {
            "description": "200 response",
            "schema": {
              "$ref": "#/definitions/RespuestaApi"
            }
          },
          "204": {
            "description": "204 response"
          },
          "401": {
            "description": "401 response"
          },
          "403": {
            "description": "403 response"
          }
        }
      }
    },
    "/api/feedback/listar": {
      "get": {
        "operationId": "obtenerTodosUsingGET",
        "produces": [
          "application/json"
        ],
        "responses": {
          "200": {
            "description": "200 response",
            "schema": {
              "$ref": "#/definitions/MODELcd63e5"
            },
            "headers": {
              "Access-Control-Allow-Origin": {
                "type": "string"
              }
            }
          },
          "401": {
            "description": "401 response"
          },
          "403": {
            "description": "403 response"
          },
          "404": {
            "description": "404 response"
          }
        }
      },
      "options": {
        "consumes": [
          "application/json"
        ],
        "produces": [
          "application/json"
        ],
        "responses": {
          "200": {
            "description": "200 response",
            "headers": {
              "Access-Control-Allow-Origin": {
                "type": "string"
              },
              "Access-Control-Allow-Methods": {
                "type": "string"
              },
              "Access-Control-Allow-Headers": {
                "type": "string"
              }
            }
          }
        }
      }
    },
    "/api/feedback/problema/listar": {
      "get": {
        "operationId": "obtenerTodosUsingGET_1",
        "produces": [
          "application/json"
        ],
        "responses": {
          "200": {
            "description": "200 response",
            "schema": {
              "$ref": "#/definitions/ArrayOfProblema"
            },
            "headers": {
              "Access-Control-Allow-Origin": {
                "type": "string"
              }
            }
          },
          "401": {
            "description": "401 response"
          },
          "403": {
            "description": "403 response"
          },
          "404": {
            "description": "404 response"
          }
        }
      },
      "options": {
        "consumes": [
          "application/json"
        ],
        "produces": [
          "application/json"
        ],
        "responses": {
          "200": {
            "description": "200 response",
            "headers": {
              "Access-Control-Allow-Origin": {
                "type": "string"
              },
              "Access-Control-Allow-Methods": {
                "type": "string"
              },
              "Access-Control-Allow-Headers": {
                "type": "string"
              }
            }
          }
        }
      }
    },
    "/api/negocio/listar": {
      "get": {
        "operationId": "obtenerTodosUsingGET_2",
        "produces": [
          "application/json"
        ],
        "responses": {
          "200": {
            "description": "200 response",
            "schema": {
              "$ref": "#/definitions/ArrayOfNegocio"
            },
            "headers": {
              "Access-Control-Allow-Origin": {
                "type": "string"
              }
            }
          },
          "401": {
            "description": "401 response"
          },
          "403": {
            "description": "403 response"
          },
          "404": {
            "description": "404 response"
          }
        }
      },
      "options": {
        "consumes": [
          "application/json"
        ],
        "produces": [
          "application/json"
        ],
        "responses": {
          "200": {
            "description": "200 response",
            "headers": {
              "Access-Control-Allow-Origin": {
                "type": "string"
              },
              "Access-Control-Allow-Methods": {
                "type": "string"
              },
              "Access-Control-Allow-Headers": {
                "type": "string"
              }
            }
          }
        }
      }
    },
    "/api/negocio/listarpaginado": {
      "get": {
        "operationId": "obtenerTodosPaginadoUsingGET",
        "produces": [
          "application/json"
        ],
        "responses": {
          "200": {
            "description": "200 response",
            "schema": {
              "$ref": "#/definitions/MODELad801a"
            }
          },
          "401": {
            "description": "401 response"
          },
          "403": {
            "description": "403 response"
          },
          "404": {
            "description": "404 response"
          }
        }
      }
    },
    "/api/security/change-password": {
      "post": {
        "operationId": "updatePasswordUsingPOST",
        "consumes": [
          "application/json"
        ],
        "produces": [
          "application/json"
        ],
        "parameters": [
          {
            "in": "body",
            "name": "UpdatePasswordDTO",
            "required": true,
            "schema": {
              "$ref": "#/definitions/UpdatePasswordDTO"
            }
          }
        ],
        "responses": {
          "200": {
            "description": "200 response",
            "schema": {
              "$ref": "#/definitions/RespuestaApi"
            },
            "headers": {
              "Access-Control-Allow-Origin": {
                "type": "string"
              }
            }
          },
          "201": {
            "description": "201 response"
          },
          "401": {
            "description": "401 response"
          },
          "403": {
            "description": "403 response"
          },
          "404": {
            "description": "404 response"
          }
        }
      },
      "options": {
        "consumes": [
          "application/json"
        ],
        "produces": [
          "application/json"
        ],
        "responses": {
          "200": {
            "description": "200 response",
            "headers": {
              "Access-Control-Allow-Origin": {
                "type": "string"
              },
              "Access-Control-Allow-Methods": {
                "type": "string"
              },
              "Access-Control-Allow-Headers": {
                "type": "string"
              }
            }
          }
        }
      }
    },
    "/api/security/first-reset-password": {
      "post": {
        "operationId": "renewPasswordFirstUsingPOST",
        "consumes": [
          "application/json"
        ],
        "produces": [
          "application/json"
        ],
        "parameters": [
          {
            "in": "body",
            "name": "RenewPasswordFirstDTO",
            "required": true,
            "schema": {
              "$ref": "#/definitions/RenewPasswordFirstDTO"
            }
          }
        ],
        "responses": {
          "200": {
            "description": "200 response",
            "schema": {
              "$ref": "#/definitions/RespuestaApi"
            },
            "headers": {
              "Access-Control-Allow-Origin": {
                "type": "string"
              }
            }
          },
          "201": {
            "description": "201 response"
          },
          "401": {
            "description": "401 response"
          },
          "403": {
            "description": "403 response"
          },
          "404": {
            "description": "404 response"
          }
        }
      },
      "options": {
        "consumes": [
          "application/json"
        ],
        "produces": [
          "application/json"
        ],
        "responses": {
          "200": {
            "description": "200 response",
            "headers": {
              "Access-Control-Allow-Origin": {
                "type": "string"
              },
              "Access-Control-Allow-Methods": {
                "type": "string"
              },
              "Access-Control-Allow-Headers": {
                "type": "string"
              }
            }
          }
        }
      }
    },
    "/api/security/login": {
      "post": {
        "operationId": "loginUsingPOST",
        "consumes": [
          "application/json"
        ],
        "produces": [
          "application/json"
        ],
        "parameters": [
          {
            "in": "body",
            "name": "LoginDTO",
            "required": true,
            "schema": {
              "$ref": "#/definitions/LoginDTO"
            }
          }
        ],
        "responses": {
          "200": {
            "description": "200 response",
            "schema": {
              "$ref": "#/definitions/RespuestaApi"
            },
            "headers": {
              "Access-Control-Allow-Origin": {
                "type": "string"
              }
            }
          },
          "201": {
            "description": "201 response"
          },
          "401": {
            "description": "401 response"
          },
          "403": {
            "description": "403 response"
          },
          "404": {
            "description": "404 response"
          }
        }
      },
      "options": {
        "consumes": [
          "application/json"
        ],
        "produces": [
          "application/json"
        ],
        "responses": {
          "200": {
            "description": "200 response",
            "headers": {
              "Access-Control-Allow-Origin": {
                "type": "string"
              },
              "Access-Control-Allow-Methods": {
                "type": "string"
              },
              "Access-Control-Allow-Headers": {
                "type": "string"
              }
            }
          }
        }
      }
    },
    "/api/security/refresh-token": {
      "post": {
        "operationId": "refreshTokenUsingPOST",
        "consumes": [
          "application/json"
        ],
        "produces": [
          "application/json"
        ],
        "parameters": [
          {
            "in": "body",
            "name": "BasicAccessDTO",
            "required": true,
            "schema": {
              "$ref": "#/definitions/BasicAccessDTO"
            }
          }
        ],
        "responses": {
          "200": {
            "description": "200 response",
            "schema": {
              "$ref": "#/definitions/RespuestaApi"
            },
            "headers": {
              "Access-Control-Allow-Origin": {
                "type": "string"
              }
            }
          },
          "201": {
            "description": "201 response"
          },
          "401": {
            "description": "401 response"
          },
          "403": {
            "description": "403 response"
          },
          "404": {
            "description": "404 response"
          }
        }
      },
      "options": {
        "consumes": [
          "application/json"
        ],
        "produces": [
          "application/json"
        ],
        "responses": {
          "200": {
            "description": "200 response",
            "headers": {
              "Access-Control-Allow-Origin": {
                "type": "string"
              },
              "Access-Control-Allow-Methods": {
                "type": "string"
              },
              "Access-Control-Allow-Headers": {
                "type": "string"
              }
            }
          }
        }
      }
    },
    "/api/security/signout": {
      "post": {
        "operationId": "signOutUsingPOST",
        "consumes": [
          "application/json"
        ],
        "produces": [
          "application/json"
        ],
        "parameters": [
          {
            "in": "body",
            "name": "BasicAccessDTO",
            "required": true,
            "schema": {
              "$ref": "#/definitions/BasicAccessDTO"
            }
          }
        ],
        "responses": {
          "200": {
            "description": "200 response",
            "schema": {
              "$ref": "#/definitions/RespuestaApi"
            },
            "headers": {
              "Access-Control-Allow-Origin": {
                "type": "string"
              }
            }
          },
          "201": {
            "description": "201 response"
          },
          "401": {
            "description": "401 response"
          },
          "403": {
            "description": "403 response"
          },
          "404": {
            "description": "404 response"
          }
        }
      },
      "options": {
        "consumes": [
          "application/json"
        ],
        "produces": [
          "application/json"
        ],
        "responses": {
          "200": {
            "description": "200 response",
            "headers": {
              "Access-Control-Allow-Origin": {
                "type": "string"
              },
              "Access-Control-Allow-Methods": {
                "type": "string"
              },
              "Access-Control-Allow-Headers": {
                "type": "string"
              }
            }
          }
        }
      }
    },
    "/api/security/token": {
      "post": {
        "operationId": "verificarTokenUsingPOST",
        "produces": [
          "application/json"
        ],
        "responses": {
          "200": {
            "description": "200 response",
            "schema": {
              "$ref": "#/definitions/RespuestaApi"
            },
            "headers": {
              "Access-Control-Allow-Origin": {
                "type": "string"
              }
            }
          },
          "201": {
            "description": "201 response"
          },
          "401": {
            "description": "401 response"
          },
          "403": {
            "description": "403 response"
          },
          "404": {
            "description": "404 response"
          }
        }
      },
      "options": {
        "consumes": [
          "application/json"
        ],
        "produces": [
          "application/json"
        ],
        "responses": {
          "200": {
            "description": "200 response",
            "headers": {
              "Access-Control-Allow-Origin": {
                "type": "string"
              },
              "Access-Control-Allow-Methods": {
                "type": "string"
              },
              "Access-Control-Allow-Headers": {
                "type": "string"
              }
            }
          }
        }
      }
    },
    "/api/sede/eliminar/{id}": {
      "delete": {
        "operationId": "eliminarUsingDELETE_1",
        "consumes": [
          "application/json"
        ],
        "produces": [
          "application/json"
        ],
        "parameters": [
          {
            "name": "id",
            "in": "path",
            "required": true,
            "type": "string"
          }
        ],
        "responses": {
          "200": {
            "description": "200 response",
            "schema": {
              "$ref": "#/definitions/RespuestaApi"
            }
          },
          "204": {
            "description": "204 response"
          },
          "401": {
            "description": "401 response"
          },
          "403": {
            "description": "403 response"
          }
        }
      }
    },
    "/api/sede/listar": {
      "get": {
        "operationId": "obtenerTodosUsingGET_3",
        "produces": [
          "application/json"
        ],
        "parameters": [
          {
            "name": "tipoNegocio",
            "in": "query",
            "required": true,
            "type": "string"
          },
          {
            "name": "radio",
            "in": "query",
            "required": true,
            "type": "string"
          },
          {
            "name": "latitud",
            "in": "query",
            "required": true,
            "type": "string"
          },
          {
            "name": "longitud",
            "in": "query",
            "required": true,
            "type": "string"
          }
        ],
        "responses": {
          "200": {
            "description": "200 response",
            "schema": {
              "$ref": "#/definitions/ArrayOfSede"
            },
            "headers": {
              "Access-Control-Allow-Origin": {
                "type": "string"
              }
            }
          },
          "401": {
            "description": "401 response"
          },
          "403": {
            "description": "403 response"
          },
          "404": {
            "description": "404 response"
          }
        }
      },
      "options": {
        "consumes": [
          "application/json"
        ],
        "produces": [
          "application/json"
        ],
        "responses": {
          "200": {
            "description": "200 response",
            "headers": {
              "Access-Control-Allow-Origin": {
                "type": "string"
              },
              "Access-Control-Allow-Methods": {
                "type": "string"
              },
              "Access-Control-Allow-Headers": {
                "type": "string"
              }
            }
          }
        }
      }
    },
    "/api/sede/listarpaginado": {
      "get": {
        "operationId": "obtenerTodosPaginadoUsingGET_1",
        "consumes": [
          "application/json"
        ],
        "produces": [
          "application/json"
        ],
        "responses": {
          "200": {
            "description": "200 response",
            "schema": {
              "$ref": "#/definitions/MODEL8063aa"
            }
          },
          "401": {
            "description": "401 response"
          },
          "403": {
            "description": "403 response"
          },
          "404": {
            "description": "404 response"
          }
        }
      }
    },
    "/api/sede/registrar": {
      "post": {
        "operationId": "guardarUsingPOST_1",
        "consumes": [
          "application/json"
        ],
        "produces": [
          "application/json"
        ],
        "parameters": [
          {
            "in": "body",
            "name": "Sede",
            "required": true,
            "schema": {
              "$ref": "#/definitions/Sede"
            }
          }
        ],
        "responses": {
          "200": {
            "description": "200 response",
            "schema": {
              "$ref": "#/definitions/RespuestaApi"
            }
          },
          "201": {
            "description": "201 response"
          },
          "401": {
            "description": "401 response"
          },
          "403": {
            "description": "403 response"
          },
          "404": {
            "description": "404 response"
          }
        }
      }
    },
    "/api/tiponegocio/eliminar/{id}": {
      "delete": {
        "operationId": "eliminarUsingDELETE_2",
        "consumes": [
          "application/json"
        ],
        "produces": [
          "application/json"
        ],
        "parameters": [
          {
            "name": "id",
            "in": "path",
            "required": true,
            "type": "string"
          }
        ],
        "responses": {
          "200": {
            "description": "200 response",
            "schema": {
              "$ref": "#/definitions/RespuestaApi"
            }
          },
          "204": {
            "description": "204 response"
          },
          "401": {
            "description": "401 response"
          },
          "403": {
            "description": "403 response"
          }
        }
      }
    },
    "/api/tiponegocio/listar": {
      "get": {
        "operationId": "obtenerTodosUsingGET_4",
        "produces": [
          "application/json"
        ],
        "responses": {
          "200": {
            "description": "200 response",
            "schema": {
              "$ref": "#/definitions/ArrayOfTipoNegocio"
            },
            "headers": {
              "Access-Control-Allow-Origin": {
                "type": "string"
              }
            }
          },
          "401": {
            "description": "401 response"
          },
          "403": {
            "description": "403 response"
          },
          "404": {
            "description": "404 response"
          }
        }
      },
      "options": {
        "consumes": [
          "application/json"
        ],
        "produces": [
          "application/json"
        ],
        "responses": {
          "200": {
            "description": "200 response",
            "headers": {
              "Access-Control-Allow-Origin": {
                "type": "string"
              },
              "Access-Control-Allow-Methods": {
                "type": "string"
              },
              "Access-Control-Allow-Headers": {
                "type": "string"
              }
            }
          }
        }
      }
    },
    "/api/tiponegocio/listarpaginado": {
      "get": {
        "operationId": "obtenerTodosPaginadosUsingGET",
        "consumes": [
          "application/json"
        ],
        "produces": [
          "application/json"
        ],
        "responses": {
          "200": {
            "description": "200 response",
            "schema": {
              "$ref": "#/definitions/MODELd07da3"
            }
          },
          "401": {
            "description": "401 response"
          },
          "403": {
            "description": "403 response"
          },
          "404": {
            "description": "404 response"
          }
        }
      }
    },
    "/api/tiponegocio/registrar": {
      "post": {
        "operationId": "guardarUsingPOST_2",
        "consumes": [
          "application/json"
        ],
        "produces": [
          "application/json"
        ],
        "parameters": [
          {
            "in": "body",
            "name": "TipoNegocio",
            "required": true,
            "schema": {
              "$ref": "#/definitions/TipoNegocio"
            }
          }
        ],
        "responses": {
          "200": {
            "description": "200 response",
            "schema": {
              "$ref": "#/definitions/RespuestaApi"
            }
          },
          "201": {
            "description": "201 response"
          },
          "401": {
            "description": "401 response"
          },
          "403": {
            "description": "403 response"
          },
          "404": {
            "description": "404 response"
          }
        }
      }
    }
  },
  "definitions": {
    "MODELcd63e5": {
      "type": "object"
    },
    "RespuestaApi": {
      "type": "object",
      "properties": {
        "accessToken": {
          "type": "string"
        },
        "body": {
          "type": "object",
          "properties": {}
        },
        "idToken": {
          "type": "string"
        },
        "refreshToken": {
          "type": "string"
        },
        "sessionId": {
          "type": "string"
        },
        "status": {
          "type": "string"
        }
      }
    },
    "FeedBack": {
      "type": "object",
      "properties": {
        "fecha": {
          "type": "string",
          "format": "date-time"
        },
        "id": {
          "type": "integer",
          "format": "int32"
        },
        "idUsuario": {
          "type": "string"
        },
        "mensaje": {
          "type": "string"
        },
        "problema": {
          "$ref": "#/definitions/Problema"
        }
      }
    },
    "MODEL8063aa": {
      "type": "object"
    },
    "Problema": {
      "type": "object",
      "properties": {
        "descripcion": {
          "type": "string"
        },
        "id": {
          "type": "integer",
          "format": "int32"
        }
      }
    },
    "ArrayOfTipoNegocio": {
      "type": "array",
      "items": {
        "$ref": "#/definitions/TipoNegocio"
      }
    },
    "TipoNegocio": {
      "type": "object",
      "properties": {
        "descripcion": {
          "type": "string"
        },
        "id": {
          "type": "integer",
          "format": "int32"
        }
      }
    },
    "ArrayOfNegocio": {
      "type": "array",
      "items": {
        "$ref": "#/definitions/Negocio"
      }
    },
    "Negocio": {
      "type": "object",
      "properties": {
        "id": {
          "type": "integer",
          "format": "int32"
        },
        "nombre": {
          "type": "string"
        },
        "tipoNegocio": {
          "$ref": "#/definitions/TipoNegocio"
        }
      }
    },
    "Sede": {
      "type": "object",
      "properties": {
        "id": {
          "type": "integer",
          "format": "int32"
        },
        "latitud": {
          "type": "number",
          "format": "double"
        },
        "longitud": {
          "type": "number",
          "format": "double"
        },
        "negocio": {
          "$ref": "#/definitions/Negocio"
        },
        "nombre": {
          "type": "string"
        },
        "tiposServicios": {
          "type": "array",
          "items": {
            "$ref": "#/definitions/TipoServicio"
          }
        }
      }
    },
    "ArrayOfSede": {
      "type": "array",
      "items": {
        "$ref": "#/definitions/Sede"
      }
    },
    "BasicAccessDTO": {
      "type": "object",
      "properties": {
        "token": {
          "type": "string"
        }
      }
    },
    "MODELad801a": {
      "type": "object"
    },
    "UpdatePasswordDTO": {
      "type": "object",
      "properties": {
        "newPassword": {
          "type": "string"
        },
        "oldPassword": {
          "type": "string"
        },
        "token": {
          "type": "string"
        },
        "username": {
          "type": "string"
        },
        "verificationCode": {
          "type": "string"
        }
      }
    },
    "MODELd07da3": {
      "type": "object"
    },
    "ArrayOfProblema": {
      "type": "array",
      "items": {
        "$ref": "#/definitions/Problema"
      }
    },
    "LoginDTO": {
      "type": "object",
      "properties": {
        "password": {
          "type": "string"
        },
        "username": {
          "type": "string"
        }
      }
    },
    "RenewPasswordFirstDTO": {
      "type": "object",
      "properties": {
        "password": {
          "type": "string"
        },
        "session": {
          "type": "string"
        },
        "username": {
          "type": "string"
        }
      }
    },
    "TipoServicio": {
      "type": "object",
      "properties": {
        "descripcion": {
          "type": "string"
        },
        "id": {
          "type": "integer",
          "format": "int32"
        }
      }
    }
  }
}
